"id","file"
"750","Map93a MIddle Cryogenian_750.jpg"
"690","Map92a Late Cryogenian_690.jpg"
"600","Map90a Middle Ediacaran_600.jpg"
"540","Map88a Precambrian-Cambrian Boundary_540.jpg"
"530","Map87a Early Cambrian Terreneuvian_530.jpg"
"520","Map86a Middle Cambrian Series 2_520.jpg"
"510","Map85a early Late Cambrian Series 3_510.jpg"
"500","Map84a LtC Furongian_500.jpg"
"490","Map83a Cambro-Ordovician Boundary_490.jpg"
"480","Map82a EO Tremadoc_480.jpg"
"470","Map81a EO Floian-Dapingian_470.jpg"
"461","Map80a LtO Darwillian_461.jpg"
"460","Map79a LtO Caradoc_460.jpg"
"450","Map78a LtO Sandbian-Katian_450.jpg"
"445","Map77a LtO Hirnantian_445.jpg"
"440","Map76a ES early Llandovery_440.jpg"
"430","Map75a ES late Llandovery_430.jpg"
"425","Map74a MS Wenlock_425.jpg"
"420","Map73a LtS  Ludlow&Pridoli_420.jpg"
"415","Map72a ED Lochlovian_415.jpg"
"410","Map71a ED Pragian_410.jpg"
"400","Map70a ED Emsian_400.jpg"
"395","Map69a MD Eifelian_395.jpg"
"390","Map68a MD Givetian_390.jpg"
"380","Map67a LtD Frasnian_380.jpg"
"370","Map66a LtD Famennian_370.jpg"
"360","Map65a Devono-Carboniferous Boundary_360.jpg"
"350","Map64a ECarb Tournaisian_350.jpg"
"340","Map63a ECarb Early Visean_340.jpg"
"330","Map62a ECarb Late Visean_330.jpg"
"320","Map61a ECarb Serpukhovian_320.jpg"
"315","Map60a LtCarb Bashkirian_315.jpg"
"310","Map59a LtCarb Moscovian_310.jpg"
"305","Map58a LtCarb Kasimovian_305.jpg"
"300","Map57a LtCarb Gzhelian_300.jpg"
"295","Map56a EP Asselian_295.jpg"
"290","Map55a EP Sakmarian_290.jpg"
"280","Map54a EP Artinskian_280.jpg"
"275","Map53a EP Kungurian_275.jpg"
"270","Map52a MP Roadian&Wordian_270.jpg"
"260","Map51a LtP Capitanian_260.jpg"
"255","Map50a LtP Lopingian_255.jpg"
"250","Map49a Permo-Triassic Boundary_250.jpg"
"245","Map48a ETr Induan-Olenekian_245.jpg"
"240","Map47a MTr Anisian_240.jpg"
"230","Map46a MTr Ladinian_230.jpg"
"220","Map45a LtTr Carnian_220.jpg"
"210","Map44a LtTr Norian_210.jpg"
"200","Map43a Triassic-Jurassic Boundary_200.jpg"
"195","Map42a EJ Hettangian_195.jpg"
"190","Map41a EJ Sinemurian_190.jpg"
"185","Map40a EJ Pliensbachian_185.jpg"
"180","Map39a EJ Toarcian_180.jpg"
"175","Map38a MJ Aalenian_175.jpg"
"170","Map37a MJ Bajocian&Bathonian_170.jpg"
"165","Map36a MJ Callovian_165.jpg"
"160","Map35a LtJ Oxfordian_160.jpg"
"155","Map34a LtJ Kimmeridgian_155.jpg"
"150","Map33a LtJ Tithonian_150.jpg"
"145","Map32a Jurassic-Cretaceous Boundary_145.jpg"
"140","Map31a EK Berriasian_140.jpg"
"135","Map30a EK Valangian_135.jpg"
"130","Map29a EK Hauterivian_130.jpg"
"125","Map28a EK Barremian_125.jpg"
"120","Map27a EK Early Albian_120.jpg"
"115","Map26a EK Late Aptian_115.jpg"
"110","Map25a EK Early Albian_110.jpg"
"105","Map24a EK Middle Albian_105.jpg"
"100","Map23a EK Late Albian_100.jpg"
"095","Map22a LtK Cenomanian_095.jpg"
"090","Map21a LtK Turonian_090.jpg"
"080","Map19a LtK Early Campanian_080.jpg"
"075","Map18a LtK Late Campanian_075.jpg"
"070","Map17a LtK Maastrichtian_070.jpg"
"066","Map16a KT Boundary_066.jpg"
"060","Map15a Paleocene_060.jpg"
"055","Map14a PETM_055.jpg"
"050","Map13a Early Eocene_050.jpg"
"045","Map12a early Middle Eocene_045.jpg"
"040","Map11a MIddle Eocene_040.jpg"
"035","Map10a Late Eocene_035.jpg"
"030","Map9a  Early Oligocene_030.jpg"
"025","Map8a Late Oligocene_025.jpg"
"020","Map7a  Early Miocene_020.jpg"
"015","Map6a  Middle Miocene_015.jpg"
"010","Map5a Late Miocene_010.jpg"
"006","Map4a Messinian Event_006.jpg"
"004","Map3a Pliocene_004.jpg"
"001","Map2a Last Glacial Maximum_001.jpg"
"000","Map1a PALEOMAP PaleoAtlas_000.jpg"
